{
  "languageserver": {
    "bash": {
      "command": "bash-language-server",
      "args": [
        "start"
      ],
      "filetypes": [
        "sh"
      ],
      "ignoredRootPaths": [
        "~"
      ]
    },
    "python": {
      "command": "python",
      "args": [
        "-mpyls",
        "-vv",
        "--log-file",
        "/tmp/lsp_python.log"
      ],
      "trace.server": "verbose",
      "filetypes": [
        "python"
      ],
      "settings": {
        "pyls": {
          "enable": true,
          "trace": {
            "server": "verbose"
          },
          "commandPath": "",
          "configurationSources": [
            "pycodestyle"
          ],
          "plugins": {
            "jedi_completion": {
              "enabled": true
            },
            "jedi_hover": {
              "enabled": true
            },
            "jedi_references": {
              "enabled": true
            },
            "jedi_signature_help": {
              "enabled": true
            },
            "jedi_symbols": {
              "enabled": true,
              "all_scopes": true
            },
            "mccabe": {
              "enabled": true,
              "threshold": 15
            },
            "preload": {
              "enabled": true
            },
            "pycodestyle": {
              "enabled": true
            },
            "pydocstyle": {
              "enabled": false,
              "match": "(?!test_).*\\.py",
              "matchDir": "[^\\.].*"
            },
            "pyflakes": {
              "enabled": false
            },
            "rope_completion": {
              "enabled": true
            },
            "yapf": {
              "enabled": true
            }
          }
        },
        "python.jediEnabled": true,
        "python.linting.flake8Enabled": true,
        "python.linting.flake8Args": [
          "--config={{ dotfiles_user_home }}/.flake8"
        ]
      }
    }
  }
}
